{
    "metadata": {
        "pagination": {
            "pageSize": 2,
            "totalCount": 3,
            "currentPage": 1,
            "totalPages": 2
        },
        "status": [
            {
                "message": "Request has been successfully completed.",
                "messageType": "INFO"
            }
        ],
        "datafiles": []
    },
    "result": {
        "data": [
            {
                "occurrenceDbId": 170,
                "occurrenceCode": "IRSEA-IRRIHQ-F1-2014-DS-1",
                "occurrenceName": "IRSEA-F1-2014-DS-001-001",
                "locationDbId": 170,
                "locationCode": "F12014DS_B27",
                "locationName": "B27",
                "plotDbId": 2909,
                "plotCode": "199",
                "plotNumber": 199,
                "plotType": "plot",
                "harvestStatus": "NO_HARVEST",
                "plotDataDbId": "327781",
                "variableDbId": "1",
                "variableAbbrev": "AYLD_CONT",
                "variableLabel": "AYLD_G",
                "dataValue": "6.155850575",
                "dataQCCode": "G",
                "transactionDbId": null,
                "creationTimestamp": "2021-02-24T08:27:20.897Z",
                "creatorDbId": 1,
                "creator": "Irri, Bims",
                "modificationTimestamp": null,
                "modifierDbId": null,
                "modifier": null,
                "collectionTimestamp": "2014-10-03T01:14:55.934Z",
                "remarks": null
            },
            {
                "occurrenceDbId": 170,
                "occurrenceCode": "IRSEA-IRRIHQ-F1-2014-DS-1",
                "occurrenceName": "IRSEA-F1-2014-DS-001-001",
                "locationDbId": 170,
                "locationCode": "F12014DS_B27",
                "locationName": "B27",
                "plotDbId": 2910,
                "plotCode": "198",
                "plotNumber": 198,
                "plotType": "plot",
                "harvestStatus": "NO_HARVEST",
                "plotDataDbId": "327780",
                "variableDbId": "1",
                "variableAbbrev": "AYLD_CONT",
                "variableLabel": "AYLD_G",
                "dataValue": "6.751358238",
                "dataQCCode": "G",
                "transactionDbId": null,
                "creationTimestamp": "2021-02-24T08:27:20.897Z",
                "creatorDbId": 1,
                "creator": "Irri, Bims",
                "modificationTimestamp": null,
                "modifierDbId": null,
                "modifier": null,
                "collectionTimestamp": "2014-10-03T01:14:55.917Z",
                "remarks": null
            }
        ]
    }
}
